"code_objet_social","libelle_objet_social"
"001000","Activités politiques"
"001005","Associations à caractère politique général"
"001010","Soutien et financement de partis et de campagnes électorales"
"001015","Action politique locale"
"001020","Action politique globale"
"001025","Activités citoyennes européennes"
"002000","Clubs, cercles de réflexion"
"002005","Associations philanthropiques"
"002010","Amicales laïques"
"002015","Clubs de réflexion"
"002020","Organisation de conférences"
"003000","Défense de droits fondamentaux, activités civiques"
"003010","Défense de la paix"
"003012","Défense des droits des enfants"
"003015","Défense des libertés publiques et des droits de l'homme"
"003020","Défense des droits des femmes, condition féminine"
"003025","Défense des droits des personnes homosexuelles"
"003030","Défense des droits des personnes en situation de handicap"
"003035","Association pour la défense de droits de minorités"
"003040","Lutte contre les discriminations"
"003045","Défense des droits des personnes rapatriées"
"003050","Défense des droits des personnes étrangères ou immigrées, de personnes réfugiées"
"003060","Activités civiques, information civique"
"004000","Justice"
"004010","Médiation, prévention"
"004020","Contrôle judiciaire, associations de personnels de justice"
"004025","Accès aux droits dans les tribunaux, assistance juridique"
"004030","Défense des droits des victimes"
"004035","Maisons du droit, accès au droit"
"005000","Information communication"
"005005","Presse, édition"
"005010","Radios privées"
"005015","Audiovisuel"
"005020","Réseaux internet"
"005025","Autres supports de communication"
"005030","Auditeurs, consommateurs d'outils d'information et de communication"
"005035","Professionnels de l'information et de communication"
"006000","Culture, pratiques d’activités artistiques, culturelles"
"006005","Bibliothèques, ludothèques, discothèques, vidéothèques"
"006010","Expression écrite, littérature, poésie"
"006020","Arts graphiques, bande dessinée, peinture, sculpture, architecture"
"006025","Photographie, cinéma (dont ciné-clubs)"
"006030","Chant choral, musique"
"006040","Danse"
"006045","Folklore"
"006070","Théâtre, marionnettes, cirque, spectacles de variété"
"006090","Artisanat, travaux manuels, bricolage, expositions"
"006100","Promotion de l'art et des artistes"
"006105","Loisirs scientifiques et techniques"
"006110","Langues, dialectes, patois"
"006115","Arts de la rue"
"007000","Clubs de loisirs, relations"
"007002","Aéroclubs"
"007003","Modélisme"
"007005","Bridge, jeux de cartes, échecs, dames, jeux de société..."
"007010","Billard, quilles"
"007025","Clubs de collectionneurs (hors sauvegarde, entretien du patrimoine), philatélie, numismatique"
"007030","Collectionneurs de véhicules, clubs amateurs de voitures anciennes"
"007035","Cercles privés, fan-clubs"
"007040","Activités festives (soirées...)"
"007045","Élevage canin, clubs de chiens de défense"
"007050","Animaux familiers, colombophilie, aquariophilie"
"007060","Gastronomie, oenologie, confréries, gourmets"
"007070","Jardins ouvriers, floralies"
"007075","Échanges locaux, réseaux d'échanges"
"007080","Centres de loisirs, clubs de loisirs multiples"
"007085","Relaxation, sophrologie"
"007095","Radioamateurs"
"009000","Action socio-culturelle"
"009005","Maisons de jeunes, foyers, clubs de jeunes"
"009007","Maisons de la culture, office municipal, centres culturels"
"009010","Loisirs pour personnes en situation de handicap"
"009015","Associations socio-éducatives, scoutisme"
"009020","Centres aérés, colonies de vacances"
"009025","Mouvements éducatifs de jeunesse et d'éducation populaire"
"009030","Comités des fêtes"
"009035","Foyers ruraux"
"009040","Clubs du troisième âge"
"009045","Majorettes, twirlings, carnavals, défilés"
"009050","Jumelages, échanges culturels, organisation d'échanges linguistiques, échanges culturels au plan international"
"010000","Préservation du patrimoine"
"010005","Collections d'objets, de documents, bibliothèques spécialisées pour la sauvegarde et l'entretien du patrimoine"
"010010","Musées, collections historiques"
"010015","Associations, sociétés savantes pour des études historiques, histoire du patrimoine"
"010017","Sociétés, clubs de généalogie"
"010020","Commémorations, entretien de monuments et sites historiques, souvenir militaire"
"010022","Comités de défense du patrimoine"
"010030","Construction de monuments (sauf lieux de culte)"
"011000","Sports, activités de plein air"
"011004","Arbitrage"
"011005","Associations multisports locales"
"011010","Associations multisports scolaires ou universitaires"
"011015","Associations multisports d'entreprise"
"011018","Handisport"
"011020","Athlétisme (triathlon, pentathlon, footing, jogging)"
"011025","Aviron, canoë kayak (aviron, rafting, canoë kayak, joutes)"
"011030","Badminton (badminton, squash, pelote basque)"
"011035","Boules (pétanque, boules)"
"011040","Bowling"
"011045","Danse sportive (danse sportive, hip hop, claquettes)"
"011050","Equitation (équitation, hippisme, course camarguaise, landaise)"
"011055","Escalade, montagne (escalade, spéléologie, via ferrata, canyonisme, alpinisme)"
"011060","Escrime"
"011065","Basket-ball"
"011070","Handball"
"011075","Football (football, futsal)"
"011080","Rugby (rugby à 13, à 15)"
"011085","Volley ball (volley, beach volley)"
"011090","Autres sports collectifs (baseball, hockey sur glace, football américain)"
"011092","Hockey sur glace, sports de glace"
"011095","Nautisme, glisse sur eau (ski nautique, surf, char à voile)"
"011100","Golf"
"011105","Gymnastique (gymnastique, gymnastique d’entretien, éducation physique, yoga), aérobic"
"011110","Haltérophilie"
"011115","Marche sportive (randonnée pédestre, raid, trekking, course orientation)"
"011120","Musculation (culturisme, musculation)"
"011125","Natation - baignade (natation, plongée)"
"011130","Roller, skate"
"011135","Sports aériens (avion, planeur, ulm, parachutisme)"
"011140","Judo"
"011145","Sports de combat (boxe, kick box, boxe thaï, lutte)"
"011150","Autres arts martiaux (karaté, aïkido, taekwondo)"
"011155","Sports de neige (ski alpin, ski de fond, snowboard), montagne"
"011160","Sports mécaniques (sport automobile, moto, trial)"
"011165","Tennis (tennis, longue paume)"
"011170","Tennis de table (tennis de table, ping-pong)"
"011175","Tir (tir à l’arc, tir à balle, ball trap), javelot"
"011180","Cyclisme (cyclisme, vélo, vtt, y compris course d’orientation à vélo, cyclotourisme)"
"011185","Voile (voile, dériveur, planche à voile)"
"011190","Gestion d'équipements sportifs, organisation de rencontres sportives, organisation de championnats, clubs de supporters"
"011192","Associations pour la promotion du sport, médailles, mérite sportif"
"011400","Activités de plein air (dont saut à l'élastique)"
"013000","Chasse pêche"
"013005","Chasse"
"013010","Pêche"
"014000","Amicales, groupements affinitaires, groupements d'entraide (hors défense de droits fondamentaux)"
"014025","Organisation de professions (hors caractère syndical)"
"014030","Association du personnel d'une entreprise (hors caractère syndical)"
"014035","Groupements d'entraide et de solidarité"
"014040","Amicale de personnes originaires d'un même pays (hors défense des droits des étrangers)"
"014045","Amicale de personnes originaires d'une même région"
"014050","Associations féminines pour l'entraide et la solidarité (hors défense de droits fondamentaux)"
"014060","Associations de personnes homosexuelles pour l'entraide et la solidarité (hors défense de droits fondamentaux)"
"014070","Associations de personnes en situation de handicap pour l'entraide et la solidarité (hors défense de droits fondamentaux)"
"014080","Associations de classe d'âge"
"015000","Éducation formation"
"015005","Parents d'élèves"
"015010","Organisation de professions enseignantes, amicales de personnel"
"015025","Associations périscolaires, coopération, aide à l'enseignement"
"015030","Œuvres sociales en faveur des élèves, œuvres en faveur pupilles de la nation"
"015035","Organisme de gestion d'établissement d'enseignement général et technique"
"015040","Organisme de gestion d'établissement d'enseignement supérieur"
"015045","Établissement de formation professionnelle, formation continue"
"015050","Centre d'enseignement et de formation associations d’étudiants, d’élèves"
"015065","Associations d’étudiants, d’élèves"
"015070","Amicales, associations d’anciens étudiants, d’anciens élèves"
"015075","Amicales, personnel d’établissements scolaires ou universitaires"
"015085","Organisation, financement de voyages d’études, d’échanges, pour scolaires ou universitaires"
"015087","Études et formations linguistiques"
"015090","Promotion de titres, de diplômes"
"015100","Apprentissage"
"015105","Maisons familiales rurales"
"016000","Recherche"
"016005","Recherche sur l’éducation et la formation"
"016010","Recherche sur la culture"
"016015","Recherche sur la vie sociale et politique"
"016025","Recherche sur l'environnement et le climat"
"016030","Association de recherches scientifiques, sciences physiques, sciences humaines..."
"016050","Autres associations de recherche"
"016080","Diffusion de savoirs, sociétés savantes ou académiques"
"017000","Santé"
"017005","Cliniques, centres médicaux, hôpitaux, sanatoriums, établissements de rééducation, maisons de convalescence"
"017015","Hôpitaux psychiatriques, soins ambulatoires en santé mentale"
"017020","Dispensaires, soins infirmiers, services paramédicaux, de garde"
"017025","Services médicaux d’urgence"
"017045","Centres de réadaptation"
"017055","Accompagnement, aide aux malades"
"017065","Don de sang, d'organes"
"017075","Gestion de matériel médical"
"017085","Hygiène, diététique"
"017095","Accueil, information pour contraception et avortement"
"017105","Médecine du travail"
"017115","Prévention et dépistage du sida"
"017120","Éducation sanitaire, prévention générale"
"017125","Prévention et dépistage de maladies (autres que le sida)"
"017130","Associations de personnes malades, ou anciens malades"
"017135","Homéopathie, médecines douces"
"017145","Organisation de professions médicales ou paramédicales"
"017155","Organisation de congrès médicaux"
"017200","Recherche médicale"
"017210","Financement de la recherche médicale"
"017300","Médecine animale, vétérinaire"
"018000","Services et établissements médico-sociaux"
"018005","Accueil et protection de la petite enfance"
"018010","Établissements et services pour adolescents en difficulté"
"018015","Établissements, services pour personnes handicapées (y compris c.a.t)"
"018025","Établissements et services pour adultes en difficulté, chrs (centres d'hébergement et de réadaptation sociale)"
"018030","Prévention et lutte contre l'alcoolisme, la toxicomanie"
"018040","Aide aux accidentés du travail"
"018045","Aide aux victimes de maladies professionnelles"
"018050","Aide sociale aux personnes en situation de handicap"
"019000","Interventions sociales"
"019004","Aide et conseils aux familles"
"019005","Associations familiales, services sociaux pour les familles"
"019010","Centres sociaux et socioculturels, foyers de jeunes travailleurs, centres d'études et d'action sociale"
"019012","Lutte contre le surendettement"
"019014","Lutte contre l'illettrisme"
"019016","Aide à l'insertion des jeunes"
"019020","Groupements de chômeurs, aide aux chômeurs"
"019025","Aide aux réfugiés et aux immigrés (hors droits fondamentaux)"
"019030","Aide aux victimes de calamités, de catastrophes naturelles"
"019032","Aide aux victimes de violences conjugales"
"019035","Aide aux victimes de violences faites aux enfants"
"019040","Aide aux personnes en danger, solitude, désespoir, soutien psychologique et moral"
"019042","Lutte contre la violence routière"
"019045","Lutte contre diverses formes de violence"
"019047","Foyers socio-éducatifs"
"019050","Réinsertion des délinquants"
"019055","Soutien, reclassement des détenus"
"020000","Associations caritatives, humanitaires, aide au développement, développement du bénévolat"
"020005","Secours financiers et autres services aux personnes en difficulté"
"020010","Secours en nature, distribution de nourriture et de vêtements"
"020015","Associations caritatives à buts multiples"
"020020","Associations caritatives intervenant au plan international"
"020025","Développement du bénévolat"
"021000","Services familiaux, services aux personnes âgées"
"021005","Crèches, garderies, haltes garderies"
"021010","Aide à domicile"
"021015","Services aux personnes âgées (téléalarme...)"
"021020","Foyers pour personnes âgées, maisons de retraite, maisons de retraite médicalisées"
"022000","Conduite d'activités économiques"
"022510","Cantines, restaurants d'entreprises"
"022515","Centres de gestion, centres juridiques, audits"
"022520","Gestion financière, gestion immobilière"
"022525","Études techniques"
"022530","Groupement d'achats, groupement d'entreprises"
"022535","Amicales de commerçants, organisation de foires"
"022540","Chambres de commerce, chambres économiques"
"022542","Association à but commercial, développement économique"
"022543","Transports"
"022545","Caisses de retraite, de prévoyance, de pensions"
"022550","Caisses de congés payés, caisses de secours"
"023000","Représentation, promotion et défense d'intérêts économiques"
"023001","Usagers de services publics"
"023002","Mouvements de consommateurs"
"023003","Défense des contribuables"
"023004","Actionnaires, épargnants"
"023005","Groupements de salariés à caractère syndical"
"023007","Groupements professionnels"
"023010","Associations de défense d'intérêts des retraités ou des personnes âgées"
"023020","Associations d'exploitants agricoles, élevage, horticulture, aviculture, apiculture, viticulture, viniculture"
"023022","Associations d'intérêts maritimes, marins"
"023025","Associations pour la représentation d'artisans, de commerçants"
"023030","Unions patronales"
"023035","Association de représentation de professions libérales"
"023040","Représentation d'intérêts économiques sectoriels"
"023045","Représentation d'intérêts régionaux et locaux"
"024000","Environnement, cadre de vie"
"024005","Pollutions, assainissement"
"024010","Ressources naturelles"
"024015","Espaces naturels"
"024020","Protection de sites naturels"
"024025","Préservation de la faune sauvage"
"024026","Protection des animaux"
"024030","Préservation de la flore sauvage"
"024035","Comités de défense, de sauvegarde"
"024040","Mouvements écologiques"
"024045","Défense et amélioration du cadre de vie"
"024050","Actions de sensibilisation et d'éducation à l'environnement et au développement durable"
"030000","Aide à l'emploi, développement local, promotion de solidarités économiques, vie locale"
"030005","Comité, défense d'un emploi"
"030010","Entreprises d'insertion, associations intermédiaires, régies de quartier"
"030012","Comités de défense et d'animation de quartier, association locale ou municipale"
"030015","Groupement d'employeurs"
"030020","Aide à la création d'activités économiques individuelles"
"030050","Promotion d'initiatives de développement durable"
"032000","Logement"
"032510","Aide au logement"
"032520","Associations et comités de locataires, de propriétaires, comités de logement"
"032525","Réhabilitation et construction de logements"
"034000","Tourisme"
"034210","Auberges de jeunesse, organisation de voyages"
"034220","Maisons et villages de vacances"
"034230","Gîtes ruraux, camping, caravaning, naturisme"
"034240","Syndicats d'initiative, offices de tourisme, salons du tourisme"
"036000","Sécurité, protection civile"
"036510","Amicale de sapeurs pompiers"
"036520","Sauvetage, secourisme, protection civile"
"036530","Prévention, formation, cours de secourisme"
"036535","Sécurité routière"
"036540","Sauvetage en mer"
"036545","Sécurité et sauvetage en montagne"
"038000","Armée (dont préparation militaire, médailles)"
"038105","Anciens combattants"
"038110","Associations de militaires, amicales, associations de conscrits"
"040000","Activités religieuses, spirituelles ou philosophiques"
